<?xml version="1.0" encoding="utf-8"?>
<!-- Generator: Adobe Illustrator 16.0.0, SVG Export Plug-In . SVG Version: 6.00 Build 0)  -->
<!DOCTYPE svg PUBLIC "-//W3C//DTD SVG 1.1//EN" "http://www.w3.org/Graphics/SVG/1.1/DTD/svg11.dtd">
<svg version="1.1" id="Calque_1" xmlns="http://www.w3.org/2000/svg" xmlns:xlink="http://www.w3.org/1999/xlink" x="0px" y="0px"
	 width="85.039px" height="85.039px" viewBox="255.121 378.426 85.039 85.039"
	 enable-background="new 255.121 378.426 85.039 85.039" xml:space="preserve">
<g>
	<path fill="none" stroke="#5C8227" stroke-width="1.5" stroke-linecap="round" stroke-linejoin="round" stroke-miterlimit="10" d="
		M300.222,424.966c1.77,0.823,1.826,2.18,1.18,3.182c-0.561,0.864-5.072,1.29-6.295,1.391c-0.091,0.009-0.113,0.127-0.033,0.171
		c1.187,0.641,5.896,3.131,6.976,2.977c1.236-0.177,10.193-5.244,12.256-5.068c2.063,0.179,3.359,1.709,1.887,3.064
		c-1.475,1.354-10.488,8.014-12.021,8.25c-1.531,0.236-13.611-2.652-15.732-2.533c-2.122,0.117-3.536,0.234-4.891,0.647
		s-6.776-0.061-4.478-5.774c4.007-5.068,5.671-4.689,7.896-6.129C289.578,423.941,300.222,424.966,300.222,424.966z"/>
	<path fill="none" stroke="#5C8227" stroke-width="1.5" stroke-linecap="round" stroke-linejoin="round" stroke-miterlimit="10" d="
		M316.875,404.867c3.25,9-4.701,16.05-13.031,13C300.173,412.367,307.025,401.717,316.875,404.867z"/>
	<path fill="none" stroke="#5C8227" stroke-width="1.5" stroke-linecap="round" stroke-linejoin="round" stroke-miterlimit="10" d="
		M309.574,411.442c-2.35,1.125-7.549,7.225-8.1,9.975"/>
	<path fill="none" stroke="#5C8227" stroke-width="1.5" stroke-linecap="round" stroke-linejoin="round" stroke-miterlimit="10" d="
		M293.474,403.567c3.1,0.1,8.9,3.25,5.801,8.899C294.724,413.517,290.674,408.317,293.474,403.567z"/>
	<path fill="none" stroke="#5C8227" stroke-width="1.5" stroke-linecap="round" stroke-linejoin="round" stroke-miterlimit="10" d="
		M297.125,408.817c1,1,3.07,4.899,3.035,7.1"/>
</g>
</svg>
